
{
  "description":{
    "name": "EDIT",
    "type": "dropdown"
  },
  "submenu":[
    {
      "name": "EDIT_UNDO",
      "shortcut": "Ctrl+Z",
      "icon": "fa-undo",
      "type": "button"
    },
    {
      "name": "EDIT_REDO",
      "shortcut": "Ctrl+Y",
      "icon": "fa-repeat",
      "type": "button"
    },
    {
      "type": "divider"
    },
    {
      "name": "EDIT_CUT",
      "shortcut": "Ctrl+X",
      "icon": "fa-cut",
      "type": "button"
    },
    {
      "name": "EDIT_COPY",
      "shortcut": "Ctrl+C",
      "icon": "fa-copy",
      "type": "button"
    },
    {
      "name": "EDIT_PASTE",
      "shortcut": "Ctrl+V",
      "icon": "fa-paste",
      "type": "button"
    },
    {
      "type": "divider"
    },
    {
      "name": "EDIT_FIND",
      "shortcut": "Ctrl+F",
      "icon": "fa-search",
      "type": "button"
    },
    {
      "name": "EDIT_FIND_NEXT",
      "shortcut": "Ctrl+G",
      "type": "button"
    },
    {
      "name": "EDIT_FIND_PREV",
      "shortcut": "Ctrl+Shift+G",
      "type": "button"
    },
    {
      "name": "EDIT_REPLACE",
      "shortcut": "Ctrl+R",
      "type": "button"
    },
    {
      "type": "divider"
    },
    {
      "name": "EDIT_GOTO",
      "shortcut": "Ctrl+J",
      "icon": "fa-share-alt",
      "type": "button"
    }
  ]
}
